Multiple Time Series on Ride Hailing Data
…
df_clean%<>%
  spread(src_sub_area, n)
df_clean

## # A tibble: 1,512 x 4
##    start_time          sxk97 sxk9e sxk9s
##    <dttm>              <dbl> <dbl> <dbl>
##  1 2017-10-01 00:00:00     6     8    10
##  2 2017-10-01 01:00:00     4     2     3
##  3 2017-10-01 02:00:00     9     3     1
##  4 2017-10-01 03:00:00     2     2     0
##  5 2017-10-01 04:00:00     5     1     0
##  6 2017-10-01 05:00:00     4     2     0
##  7 2017-10-01 06:00:00     1     1     0
##  8 2017-10-01 07:00:00     0     0     1
##  9 2017-10-01 08:00:00     3     2     5
## 10 2017-10-01 09:00:00     3    11     5
## # ... with 1,502 more rows

rec <- recipe(~ ., filter(df_clean, start_time %within% intrain)) %>%
  step_sqrt(all_numeric()) %>%
  step_center(all_numeric()) %>%
  step_scale(all_numeric()) %>%
  prep()

# preview the bake results
df_clean <- bake(rec, df_clean)
df_clean

## # A tibble: 1,512 x 4
##    start_time           sxk97  sxk9e  sxk9s
##    <dttm>               <dbl>  <dbl>  <dbl>
##  1 2017-10-01 00:00:00 -0.594 -0.697 -0.111
##  2 2017-10-01 01:00:00 -0.841 -1.28  -0.780
##  3 2017-10-01 02:00:00 -0.291 -1.15  -1.12 
##  4 2017-10-01 03:00:00 -1.16  -1.28  -1.59 
##  5 2017-10-01 04:00:00 -0.711 -1.44  -1.59 
##  6 2017-10-01 05:00:00 -0.841 -1.28  -1.59 
##  7 2017-10-01 06:00:00 -1.39  -1.44  -1.59 
##  8 2017-10-01 07:00:00 -1.94  -1.85  -1.12 
##  9 2017-10-01 08:00:00 -0.989 -1.28  -0.544
## 10 2017-10-01 09:00:00 -0.989 -0.497 -0.544
## # ... with 1,502 more rows
…
  # add additional adjustment if necessary
  results <- round(results)

  # return the results
  results

}

sekarang kita memiliki data dengan long format.

df_clean %<>%
  gather(src_sub_area, n, -start_time)
df_clean

## # A tibble: 4,536 x 3
##    start_time          src_sub_area      n
##    <dttm>              <chr>         <dbl>
##  1 2017-10-01 00:00:00 sxk97        -0.594
##  2 2017-10-01 01:00:00 sxk97        -0.841
##  3 2017-10-01 02:00:00 sxk97        -0.291
##  4 2017-10-01 03:00:00 sxk97        -1.16 
##  5 2017-10-01 04:00:00 sxk97        -0.711
##  6 2017-10-01 05:00:00 sxk97        -0.841
##  7 2017-10-01 06:00:00 sxk97        -1.39 
##  8 2017-10-01 07:00:00 sxk97        -1.94 
##  9 2017-10-01 08:00:00 sxk97        -0.989
## 10 2017-10-01 09:00:00 sxk97        -0.989
## # ... with 4,526 more rows

Modeling

Kita akan mempersiapkan sample indicator untuk membuat nested tabel.

df_clean %<>%
  mutate(sample = case_when(
    start_time %within% intrain ~ "train",
    start_time %within% intest ~ "test"
  )) %>% drop_na()
df_clean

## # A tibble: 4,536 x 4
##    start_time          src_sub_area      n sample
##    <dttm>              <chr>         <dbl> <chr> 
##  1 2017-10-01 00:00:00 sxk97        -0.594 train 
##  2 2017-10-01 01:00:00 sxk97        -0.841 train 
##  3 2017-10-01 02:00:00 sxk97        -0.291 train 
##  4 2017-10-01 03:00:00 sxk97        -1.16  train 
##  5 2017-10-01 04:00:00 sxk97        -0.711 train 
##  6 2017-10-01 05:00:00 sxk97        -0.841 train 
##  7 2017-10-01 06:00:00 sxk97        -1.39  train 
##  8 2017-10-01 07:00:00 sxk97        -1.94  train 
##  9 2017-10-01 08:00:00 sxk97        -0.989 train 
## 10 2017-10-01 09:00:00 sxk97        -0.989 train 
## # ... with 4,526 more rows
…
lalu melakukan spread-gather untuk mendapatkan kunci yang tepat.

df_test %<>%
  select(src_sub_area, key, actual = test, forecast) %>%
  spread(key, forecast) %>%
  gather(key, value, -src_sub_area)
df_test

## # A tibble: 21 x 3
## # Groups:   src_sub_area [3]
##    src_sub_area key           value             
##    <chr>        <chr>         <list>            
##  1 sxk97        actual        <tibble [168 x 2]>
##  2 sxk9e        actual        <tibble [168 x 2]>
##  3 sxk9s        actual        <tibble [168 x 2]>
##  4 sxk97        msts-stlm     <tibble [168 x 2]>
##  5 sxk9e        msts-stlm     <tibble [168 x 2]>
##  6 sxk9s        msts-stlm     <tibble [168 x 2]>
##  7 sxk97        msts-tbats    <tibble [168 x 2]>
##  8 sxk9e        msts-tbats    <tibble [168 x 2]>
##  9 sxk9s        msts-tbats    <tibble [168 x 2]>
## 10 sxk97        ts-auto.arima <tibble [168 x 2]>
## # ... with 11 more rows

lalu kita akan melakukan unnest dan mengaplikasikan revert back function.

df_test %<>%
  unnest(value) %>%
  mutate(n = rec_revert(n, rec, src_sub_area))
df_test

## # A tibble: 3,528 x 4
## # Groups:   src_sub_area [3]
##    src_sub_area key    start_time              n
##    <chr>        <chr>  <dttm>              <dbl>
##  1 sxk97        actual 2017-11-26 00:00:00    38
##  2 sxk97        actual 2017-11-26 01:00:00    21
##  3 sxk97        actual 2017-11-26 02:00:00    10
##  4 sxk97        actual 2017-11-26 03:00:00    10
##  5 sxk97        actual 2017-11-26 04:00:00     5
##  6 sxk97        actual 2017-11-26 05:00:00     2
##  7 sxk97        actual 2017-11-26 06:00:00     0
##  8 sxk97        actual 2017-11-26 07:00:00    11
##  9 sxk97        actual 2017-11-26 08:00:00     4
## 10 sxk97        actual 2017-11-26 09:00:00     4
## # ... with 3,518 more rows
…
Dalam kasus multiple time-series kali ini, model gagal tolak H0 pada normality of residuals, hal ini dapat disebabkan pada persebaran data, jika kita kembali melihat grafik time-series yang terbentuk diawal, terdapat beberapan outlier pada data. Dan pada kasus time-series, non-normality error bukanlah isu yang serius. Untuk asumsi No-Autocorrelation model berhasil tolak H0 karena p-value pada Box test > 0.05

Kita dapat melakukan unnest untuk mendapatkan hasil

df_clean %<>%
  select(src_sub_area, actual = fulldata, forecast) %>%
  gather(key, value, -src_sub_area) %>%
  unnest(value) %>%
  mutate(n = rec_revert(n, rec, src_sub_area))
df_clean

## # A tibble: 5,040 x 4
##    src_sub_area key    start_time              n
##    <chr>        <chr>  <dttm>              <dbl>
##  1 sxk97        actual 2017-10-01 00:00:00     6
##  2 sxk97        actual 2017-10-01 01:00:00     4
##  3 sxk97        actual 2017-10-01 02:00:00     9
##  4 sxk97        actual 2017-10-01 03:00:00     2
##  5 sxk97        actual 2017-10-01 04:00:00     5
##  6 sxk97        actual 2017-10-01 05:00:00     4
##  7 sxk97        actual 2017-10-01 06:00:00     1
##  8 sxk97        actual 2017-10-01 07:00:00     0
##  9 sxk97        actual 2017-10-01 08:00:00     3
## 10 sxk97        actual 2017-10-01 09:00:00     3
## # ... with 5,030 more rows
…
